EESchema Schematic File Version 2
LIBS:power
LIBS:device
LIBS:transistors
LIBS:conn
LIBS:linear
LIBS:regul
LIBS:74xx
LIBS:cmos4000
LIBS:adc-dac
LIBS:memory
LIBS:xilinx
LIBS:microcontrollers
LIBS:dsp
LIBS:microchip
LIBS:analog_switches
LIBS:motorola
LIBS:texas
LIBS:intel
LIBS:audio
LIBS:interface
LIBS:digital-audio
LIBS:philips
LIBS:display
LIBS:cypress
LIBS:siliconi
LIBS:opto
LIBS:atmel
LIBS:contrib
LIBS:valves
LIBS:hv9961
LIBS:project-cache
EELAYER 25 0
EELAYER END
$Descr A4 11693 8268
encoding utf-8
Sheet 1 1
Title "Dimmable LED Driver"
Date "2016-04-11"
Rev "Rev. 0.1"
Comp "Illumium.Org"
Comment1 ""
Comment2 "Kayo"
Comment3 ""
Comment4 ""
$EndDescr
$Comp
L CONN_01X02 P1
U 1 1 570A3753
P 900 2150
F 0 "P1" H 900 2300 50  0000 C CNN
F 1 "PWR" V 1000 2150 50  0000 C CNN
F 2 "Local:2PIN_HEAD" H 900 2150 60  0001 C CNN
F 3 "" H 900 2150 60  0000 C CNN
	1    900  2150
	-1   0    0    1   
$EndComp
$Comp
L GND #PWR01
U 1 1 570A3893
P 1700 2500
F 0 "#PWR01" H 1700 2250 50  0001 C CNN
F 1 "GND" H 1700 2350 50  0000 C CNN
F 2 "" H 1700 2500 60  0000 C CNN
F 3 "" H 1700 2500 60  0000 C CNN
	1    1700 2500
	1    0    0    -1  
$EndComp
$Comp
L CP C1
U 1 1 570A39A5
P 2800 2450
F 0 "C1" H 2825 2550 50  0000 L CNN
F 1 "47u 400V" H 2650 2350 50  0000 L CNN
F 2 "Local:C_Radial_D16_L26_P7.5_Horizontal" H 2838 2300 30  0001 C CNN
F 3 "" H 2800 2450 60  0000 C CNN
	1    2800 2450
	1    0    0    -1  
$EndComp
$Comp
L C C3
U 1 1 570A3A9B
P 3400 2450
F 0 "C3" H 3425 2550 50  0000 L CNN
F 1 "470n 400V" H 3200 2350 50  0000 L CNN
F 2 "Local:C_Rect_L18_W5_P15" H 3438 2300 30  0001 C CNN
F 3 "" H 3400 2450 60  0000 C CNN
	1    3400 2450
	1    0    0    -1  
$EndComp
Text GLabel 3100 2100 1    60   Input ~ 0
VHH
$Comp
L GND #PWR02
U 1 1 570A3C51
P 3100 2800
F 0 "#PWR02" H 3100 2550 50  0001 C CNN
F 1 "GND" H 3100 2650 50  0000 C CNN
F 2 "" H 3100 2800 60  0000 C CNN
F 3 "" H 3100 2800 60  0000 C CNN
	1    3100 2800
	1    0    0    -1  
$EndComp
$Comp
L HV9961 D7
U 1 1 570A4327
P 3300 4600
F 0 "D7" H 3050 4950 60  0000 C CNN
F 1 "HV9961" H 3500 4200 60  0000 C CNN
F 2 "Local:SOIC-8_3.9x4.9mm_Pitch1.27mm" H 3300 4600 60  0001 C CNN
F 3 "" H 3300 4600 60  0000 C CNN
	1    3300 4600
	1    0    0    -1  
$EndComp
$Comp
L VDD #PWR03
U 1 1 570A45F7
P 2700 4300
F 0 "#PWR03" H 2700 4150 50  0001 C CNN
F 1 "VDD" H 2700 4450 50  0000 C CNN
F 2 "" H 2700 4300 60  0000 C CNN
F 3 "" H 2700 4300 60  0000 C CNN
	1    2700 4300
	1    0    0    -1  
$EndComp
$Comp
L CP C5
U 1 1 570A466D
P 2200 4550
F 0 "C5" H 2225 4650 50  0000 L CNN
F 1 "2u" H 2225 4450 50  0000 L CNN
F 2 "Local:C_0805" H 2238 4400 30  0001 C CNN
F 3 "" H 2200 4550 60  0000 C CNN
	1    2200 4550
	1    0    0    -1  
$EndComp
$Comp
L VDD #PWR04
U 1 1 570A46E8
P 2200 4300
F 0 "#PWR04" H 2200 4150 50  0001 C CNN
F 1 "VDD" H 2200 4450 50  0000 C CNN
F 2 "" H 2200 4300 60  0000 C CNN
F 3 "" H 2200 4300 60  0000 C CNN
	1    2200 4300
	1    0    0    -1  
$EndComp
$Comp
L GND #PWR05
U 1 1 570A4794
P 2200 4800
F 0 "#PWR05" H 2200 4550 50  0001 C CNN
F 1 "GND" H 2200 4650 50  0000 C CNN
F 2 "" H 2200 4800 60  0000 C CNN
F 3 "" H 2200 4800 60  0000 C CNN
	1    2200 4800
	1    0    0    -1  
$EndComp
Text GLabel 3300 3500 1    60   Input ~ 0
VHH
$Comp
L R R4
U 1 1 570A4993
P 3900 5050
F 0 "R4" V 3980 5050 50  0000 C CNN
F 1 "Rt" V 3900 5050 50  0000 C CNN
F 2 "Local:R_0603" V 3830 5050 30  0001 C CNN
F 3 "" H 3900 5050 30  0000 C CNN
	1    3900 5050
	-1   0    0    -1  
$EndComp
$Comp
L GND #PWR06
U 1 1 570A4AE4
P 3900 5300
F 0 "#PWR06" H 3900 5050 50  0001 C CNN
F 1 "GND" H 3900 5150 50  0000 C CNN
F 2 "" H 3900 5300 60  0000 C CNN
F 3 "" H 3900 5300 60  0000 C CNN
	1    3900 5300
	1    0    0    -1  
$EndComp
$Comp
L GND #PWR07
U 1 1 570A54AD
P 3300 5300
F 0 "#PWR07" H 3300 5050 50  0001 C CNN
F 1 "GND" H 3300 5150 50  0000 C CNN
F 2 "" H 3300 5300 60  0000 C CNN
F 3 "" H 3300 5300 60  0000 C CNN
	1    3300 5300
	1    0    0    -1  
$EndComp
$Comp
L R R5
U 1 1 570A578B
P 4200 5050
F 0 "R5" V 4280 5050 50  0000 C CNN
F 1 "Rcs" V 4200 5050 50  0000 C CNN
F 2 "Local:R_1206" V 4130 5050 30  0001 C CNN
F 3 "" H 4200 5050 30  0000 C CNN
	1    4200 5050
	-1   0    0    -1  
$EndComp
$Comp
L GND #PWR08
U 1 1 570A58CA
P 4200 5300
F 0 "#PWR08" H 4200 5050 50  0001 C CNN
F 1 "GND" H 4200 5150 50  0000 C CNN
F 2 "" H 4200 5300 60  0000 C CNN
F 3 "" H 4200 5300 60  0000 C CNN
	1    4200 5300
	1    0    0    -1  
$EndComp
$Comp
L Q_NMOS_GDS Q1
U 1 1 570A5C12
P 4100 4400
F 0 "Q1" H 4050 4550 50  0000 R CNN
F 1 "IRF830B" H 4050 4300 50  0000 R CNN
F 2 "Local:TO-220_Neutral123_Vertical_LargePads" H 4300 4500 29  0001 C CNN
F 3 "" H 4100 4400 60  0000 C CNN
	1    4100 4400
	1    0    0    -1  
$EndComp
$Comp
L D_Schottky D6
U 1 1 570A5E5B
P 4200 3850
F 0 "D6" H 4200 3950 50  0000 C CNN
F 1 "SF28" H 4200 3750 50  0000 C CNN
F 2 "Local:Diode_DO-41_SOD81_Vertical_AnodeUp" H 4200 3850 60  0001 C CNN
F 3 "" H 4200 3850 60  0000 C CNN
	1    4200 3850
	0    -1   1    0   
$EndComp
Text GLabel 4200 3500 1    60   Input ~ 0
VHH
$Comp
L INDUCTOR L1
U 1 1 570A60DD
P 4600 4100
F 0 "L1" V 4700 4100 50  0000 C CNN
F 1 "Lload" V 4550 4100 50  0000 C CNN
F 2 "Local:IND_EE19_5" H 4600 4100 60  0001 C CNN
F 3 "" H 4600 4100 60  0000 C CNN
	1    4600 4100
	0    1    -1   0   
$EndComp
$Comp
L C C4
U 1 1 570A616A
P 5000 3850
F 0 "C4" H 5025 3950 50  0000 L CNN
F 1 "470n 400V" H 4800 3750 50  0000 L CNN
F 2 "Local:C_Rect_L18_W5_P15" H 5038 3700 30  0001 C CNN
F 3 "" H 5000 3850 60  0000 C CNN
	1    5000 3850
	-1   0    0    -1  
$EndComp
$Comp
L CONN_01X02 P2
U 1 1 570A6399
P 5500 3850
F 0 "P2" H 5500 4000 50  0000 C CNN
F 1 "LED" V 5600 3850 50  0000 C CNN
F 2 "Local:2PIN_HEAD" H 5500 3850 60  0001 C CNN
F 3 "" H 5500 3850 60  0000 C CNN
	1    5500 3850
	1    0    0    1   
$EndComp
$Comp
L R R3
U 1 1 570A6979
P 2500 5050
F 0 "R3" V 2580 5050 50  0000 C CNN
F 1 "Rldd" V 2500 5050 50  0000 C CNN
F 2 "Local:R_0603" V 2430 5050 30  0001 C CNN
F 3 "" H 2500 5050 30  0000 C CNN
	1    2500 5050
	-1   0    0    -1  
$EndComp
$Comp
L R R2
U 1 1 570A6A1E
P 2500 4550
F 0 "R2" V 2580 4550 50  0000 C CNN
F 1 "Rldu" V 2500 4550 50  0000 C CNN
F 2 "Local:R_0603" V 2430 4550 30  0001 C CNN
F 3 "" H 2500 4550 30  0000 C CNN
	1    2500 4550
	-1   0    0    -1  
$EndComp
$Comp
L VDD #PWR09
U 1 1 570A6A7A
P 2500 4300
F 0 "#PWR09" H 2500 4150 50  0001 C CNN
F 1 "VDD" H 2500 4450 50  0000 C CNN
F 2 "" H 2500 4300 60  0000 C CNN
F 3 "" H 2500 4300 60  0000 C CNN
	1    2500 4300
	1    0    0    -1  
$EndComp
$Comp
L GND #PWR010
U 1 1 570A6C1F
P 2500 5300
F 0 "#PWR010" H 2500 5050 50  0001 C CNN
F 1 "GND" H 2500 5150 50  0000 C CNN
F 2 "" H 2500 5300 60  0000 C CNN
F 3 "" H 2500 5300 60  0000 C CNN
	1    2500 5300
	1    0    0    -1  
$EndComp
$Comp
L PC817 U1
U 1 1 570A6D05
P 1800 5500
F 0 "U1" H 1600 5700 50  0000 L CNN
F 1 "PC817" H 1800 5700 50  0000 L CNN
F 2 "Local:SODIP-4_W7.62mm" H 1600 5300 50  0001 L CIN
F 3 "" H 1800 5500 50  0000 L CNN
	1    1800 5500
	1    0    0    -1  
$EndComp
$Comp
L VDD #PWR011
U 1 1 570A7049
P 2200 5300
F 0 "#PWR011" H 2200 5150 50  0001 C CNN
F 1 "VDD" H 2200 5450 50  0000 C CNN
F 2 "" H 2200 5300 60  0000 C CNN
F 3 "" H 2200 5300 60  0000 C CNN
	1    2200 5300
	1    0    0    -1  
$EndComp
$Comp
L R R1
U 1 1 570A75E3
P 1250 5400
F 0 "R1" V 1330 5400 50  0000 C CNN
F 1 "150" V 1250 5400 50  0000 C CNN
F 2 "Local:R_0603" V 1180 5400 30  0001 C CNN
F 3 "" H 1250 5400 30  0000 C CNN
	1    1250 5400
	0    -1   -1   0   
$EndComp
$Comp
L CONN_01X02 P3
U 1 1 570A783E
P 800 5450
F 0 "P3" H 800 5600 50  0000 C CNN
F 1 "PWM" V 900 5450 50  0000 C CNN
F 2 "Local:Pin_Header_Straight_1x02" H 800 5450 60  0001 C CNN
F 3 "" H 800 5450 60  0000 C CNN
	1    800  5450
	-1   0    0    1   
$EndComp
Text Notes 12150 4500 0    60   ~ 0
/* maxima */\n\nEQ[D]: V[OUT] / V[IN] = 1 - T[OFF] * f[S]; /* D < 0.75,  */\nEQ[T[OFF]]: T[OFF] = R[T] * 4e-11 + 3e-7; /* R[t] = 30e3...1e6 */\nEQ[I[LED]]: I[LED] = 0.275 / R[CS];\nEQ[V[OUT]]: V[OUT] = V[LED] * N[LED];\nEQ[L[OUT]]: L[OUT] = V[OUT] * T[OFF] / (0.4 * I[LED(max)]), EQ[T[OFF]];\nEQ[I[IN]]: I[IN] = 1e-3 + Q[g] * f[S];\nEQ[V[IN(max)]]: V[IN(max)] = (T[J(max)] - T[A]) / (R[%theta,JA] * I[IN]), EQ[I[IN]];\nEQ[P[R[CS]]]: P[R[CS]] = I[LED(max)]^2 * R[CS];\n\nEQ[R[CS]]: solve(EQ[I[LED]], R[CS]), I[LED]=I[LED(max)];\nEQ[R[T]]: solve(EQ[T[OFF]], R[T]), solve(EQ[D], T[OFF]);\n\nPR[HV9961]: [V[DD]=7.5, T[J(max)]=125, R[%theta,JA]=128]$\nPR[OP]: [V[IN]=310, T[A]=40, f[S]=75e3]$\n\nPR[IRFP840]: [Q[g]=63e-9]$\nPR[IRFP830B]: [Q[g]=21e-9]$\n\nEQ[I[IN]], PR[OP], PR[IRFP830B], numer;\nEQ[V[IN(max)]], PR[HV9961], PR[OP], PR[IRFP830B], numer;\n\nPR[LED(red)]: [I[LED(min)]=600e-3, I[LED(max)]=700e-3, V[LED]=2.6, N[LED]=20]$\nPR[V[OUT](red)]: EQ[V[OUT]], PR[LED(red)];\nEQ[R[CS]], PR[LED(red)], numer;\nPR[R[CS](red)]: [R[CS]=0.4]$\nEQ[P[R[CS]]], PR[LED(red)], PR[R[CS](red)];\nEQ[R[T]], PR[OP], PR[V[OUT](red)];\nPR[R[T](red)]: [R[T]=270e3]$\nEQ[L[OUT]], PR[OP], PR[LED(red)], PR[V[OUT](red)], PR[R[T](red)];\nPR[L[OUT]]: [L[OUT]=2e-3];\n\nPR[LED(blue)]: [I[LED]=600e-3, I[LED(max)]=700e-3, V[LED]=3.4, N[LED]=10]$\nPR[V[OUT](blue)]: EQ[V[OUT]], PR[LED(blue)];\nEQ[R[CS]], PR[LED(blue)], numer;\nPR[R[CS](blue)]: [R[CS]=0.4]$\nEQ[P[R[CS]]], PR[LED(blue)], PR[R[CS](blue)];\nEQ[R[T]], PR[OP], PR[V[OUT](blue)];\nPR[R[T](blue)]: [R[T]=270e3]$\nEQ[L[OUT]], PR[OP], PR[LED(blue)], PR[V[OUT](blue)], PR[R[T](blue)];\nPR[L[OUT]]: [L[OUT]=1.4e-3];
$Comp
L GND #PWR012
U 1 1 570A8BCC
P 2700 6100
F 0 "#PWR012" H 2700 5850 50  0001 C CNN
F 1 "GND" H 2700 5950 50  0000 C CNN
F 2 "" H 2700 6100 60  0000 C CNN
F 3 "" H 2700 6100 60  0000 C CNN
	1    2700 6100
	1    0    0    -1  
$EndComp
$Comp
L R R6
U 1 1 570AAC72
P 2700 5850
F 0 "R6" V 2780 5850 50  0000 C CNN
F 1 "10K" V 2700 5850 50  0000 C CNN
F 2 "Local:R_0603" V 2630 5850 30  0001 C CNN
F 3 "" H 2700 5850 30  0000 C CNN
	1    2700 5850
	-1   0    0    -1  
$EndComp
Text Notes 800  1150 0    60   ~ 0
EQ[C[f(min)]]: C[f(min)] = V[O(max)] * I[O(max)] / ((2 * V[AC(min)]^2 - V[DC(min)]^2) * 0.9 * freq);\nPR[OP]: [V[O(max)]=52, I[O(max)]=0.7, V[AC(min)]=170, V[DC(min)]=120, freq=50];\nEQ[C[f(min)]], PR[OP];
Text Notes 4400 5600 0    60   ~ 0
Blue LED (750mA 10pcs)\nRcs = 0R4\nRt = 270K\nLload = 1.5mH\n\nRed LED (750mA 20pcs)\nRcs = 0R4\nRt = 270K\nLload = 2mH
Text Notes 3500 3850 0    60   ~ 0
75V\n3mA
$Comp
L ZENER D5
U 1 1 570A3CDA
P 3300 3800
F 0 "D5" H 3300 3900 50  0000 C CNN
F 1 "1N4761A" H 3300 3700 50  0000 C CNN
F 2 "Local:Diode_DO-41_SOD81_Vertical_KathodeUp" H 3300 3800 60  0001 C CNN
F 3 "" H 3300 3800 60  0000 C CNN
	1    3300 3800
	0    -1   1    0   
$EndComp
$Comp
L Thermistor TH1
U 1 1 574F6320
P 1200 2500
F 0 "TH1" V 1300 2550 50  0000 C CNN
F 1 "10R" V 1100 2500 50  0000 C BNN
F 2 "Local:NTC_11x5.5_f7.5" H 1200 2500 50  0001 C CNN
F 3 "" H 1200 2500 50  0000 C CNN
	1    1200 2500
	-1   0    0    1   
$EndComp
Text Notes 1450 4600 0    60   ~ 0
Rldu = 10K\nRldd = NC
$Comp
L CONN_01X01 M1
U 1 1 574FC0A9
P 3700 6500
F 0 "M1" H 3700 6600 50  0000 C CNN
F 1 "M3H" V 3800 6500 50  0000 C CNN
F 2 "Local:MountingHole_3mm" H 3700 6500 50  0001 C CNN
F 3 "" H 3700 6500 50  0000 C CNN
	1    3700 6500
	0    -1   -1   0   
$EndComp
$Comp
L GND #PWR013
U 1 1 574FC2B0
P 3700 6800
F 0 "#PWR013" H 3700 6550 50  0001 C CNN
F 1 "GND" H 3700 6650 50  0000 C CNN
F 2 "" H 3700 6800 60  0000 C CNN
F 3 "" H 3700 6800 60  0000 C CNN
	1    3700 6800
	1    0    0    -1  
$EndComp
$Comp
L CONN_01X01 M2
U 1 1 574FC38C
P 4000 6500
F 0 "M2" H 4000 6600 50  0000 C CNN
F 1 "M3H" V 4100 6500 50  0000 C CNN
F 2 "Local:MountingHole_3mm" H 4000 6500 50  0001 C CNN
F 3 "" H 4000 6500 50  0000 C CNN
	1    4000 6500
	0    -1   -1   0   
$EndComp
$Comp
L GND #PWR014
U 1 1 574FC392
P 4000 6800
F 0 "#PWR014" H 4000 6550 50  0001 C CNN
F 1 "GND" H 4000 6650 50  0000 C CNN
F 2 "" H 4000 6800 60  0000 C CNN
F 3 "" H 4000 6800 60  0000 C CNN
	1    4000 6800
	1    0    0    -1  
$EndComp
$Comp
L CONN_01X01 M3
U 1 1 574FC40D
P 4300 6500
F 0 "M3" H 4300 6600 50  0000 C CNN
F 1 "M3H" V 4400 6500 50  0000 C CNN
F 2 "Local:MountingHole_3mm" H 4300 6500 50  0001 C CNN
F 3 "" H 4300 6500 50  0000 C CNN
	1    4300 6500
	0    -1   -1   0   
$EndComp
$Comp
L GND #PWR015
U 1 1 574FC413
P 4300 6800
F 0 "#PWR015" H 4300 6550 50  0001 C CNN
F 1 "GND" H 4300 6650 50  0000 C CNN
F 2 "" H 4300 6800 60  0000 C CNN
F 3 "" H 4300 6800 60  0000 C CNN
	1    4300 6800
	1    0    0    -1  
$EndComp
$Comp
L HEATSINK HS1
U 1 1 574FCF75
P 4600 4450
F 0 "HS1" H 4600 4650 50  0000 C CNN
F 1 "HEATSINK" H 4600 4400 50  0000 C CNN
F 2 "Local:RAD_W36_L20" H 4600 4450 50  0001 C CNN
F 3 "" H 4600 4450 50  0000 C CNN
	1    4600 4450
	1    0    0    -1  
$EndComp
$Comp
L R R7
U 1 1 574FF098
P 2900 5350
F 0 "R7" V 2980 5350 50  0000 C CNN
F 1 "Rpdu" V 2900 5350 50  0000 C CNN
F 2 "Local:R_0603" V 2830 5350 30  0001 C CNN
F 3 "" H 2900 5350 30  0000 C CNN
	1    2900 5350
	-1   0    0    -1  
$EndComp
$Comp
L VDD #PWR016
U 1 1 574FF248
P 2900 5100
F 0 "#PWR016" H 2900 4950 50  0001 C CNN
F 1 "VDD" H 2900 5250 50  0000 C CNN
F 2 "" H 2900 5100 60  0000 C CNN
F 3 "" H 2900 5100 60  0000 C CNN
	1    2900 5100
	1    0    0    -1  
$EndComp
$Comp
L CONN_01X01 M4
U 1 1 57501033
P 4600 6500
F 0 "M4" H 4600 6600 50  0000 C CNN
F 1 "M3H" V 4700 6500 50  0000 C CNN
F 2 "Local:MountingHole_3mm" H 4600 6500 50  0001 C CNN
F 3 "" H 4600 6500 50  0000 C CNN
	1    4600 6500
	0    -1   -1   0   
$EndComp
$Comp
L GND #PWR017
U 1 1 57501039
P 4600 6800
F 0 "#PWR017" H 4600 6550 50  0001 C CNN
F 1 "GND" H 4600 6650 50  0000 C CNN
F 2 "" H 4600 6800 60  0000 C CNN
F 3 "" H 4600 6800 60  0000 C CNN
	1    4600 6800
	1    0    0    -1  
$EndComp
Text Notes 3650 3150 0    60   ~ 0
/* Inductor */\n\nEQ[A[L]]: A[L] = L / N^2;\nEQ[N]: solve(EQ[A[L]], N)[2];\n\nPR[EE19_0G48[test]]: [N=7, L=1.8e-6];\nEQ[A[L]], PR[EE19_0G48[test]];\nPR[EE19_0G48]: A[L]=36.7e-9;\nEQ[N], PR[EE19_0G48], L=1.6e-3;\n\nPR[EE19_0G2[test]]: [N=7, L=6.8e-6];\nEQ[A[L]], PR[EE19_0G2[test]];\nPR[EE19_0G2]: A[L]=138.78e-9;\nEQ[N], PR[EE19_0G2], L=1.6e-3;\nEQ[N], PR[EE19_0G2], L=2.0e-3;\n\nPR[EE19_0G2[test]]: [N=13*6+14, L=1.65e-3];\nEQ[A[L]], PR[EE19_0G2[test]];\nPR[EE19_0G2]: A[L]=194.94e-9;\nEQ[N], PR[EE19_0G2], L=1.6e-3;\nEQ[N], PR[EE19_0G2], L=2.0e-3;
Text Notes 3150 5950 0    60   ~ 0
EQ[I[in]]: I[in] = 1/2 * I[max] * (T[ON] + T[OFF] - T[D]) / (T[ON]+T[OFF]);\nEQ[I[in]], T[ON]=T[OFF]/0.75, T[D]=T[OFF]*0.1, T[OFF]=1.11e-5, I[max]=700e-3;
Text Notes 4300 3550 0    60   ~ 0
Old: EE19 PC40 29AWGx2 92T 1.6mH G0.2mm\nNew: EE19 PC40 27AWGx1 133T 1.8mH G0.4mm
Text Notes 4400 4650 0    60   ~ 0
24mm^2
Text GLabel 5000 4200 3    60   Input ~ 0
VGL
$Comp
L F_Small F1
U 1 1 57EA3B9B
P 1300 2100
F 0 "F1" H 1260 2160 50  0000 L CNN
F 1 "1A" H 1250 2050 50  0000 L CNN
F 2 "Local:FUSE_1A" H 1300 2100 50  0001 C CNN
F 3 "" H 1300 2100 50  0000 C CNN
	1    1300 2100
	1    0    0    -1  
$EndComp
Text Notes 1550 8650 0    60   ~ 0
EQ[I[IN]]: I[IN] = 1/2 * I[MAX] * (T[ON] + T[OFF] - T[D]) / (T[ON]+T[OFF]);\nEQ[S]: S = I / J;\nEQ[D]: D = 2 * sqrt(S / %pi), EQ[S];\nEQ[S[N]]: S[N] = 14e-3 / F, F = 1 / (T[ON] + T[OFF]);\nEQ[D[N]]: D[N] = 2 * sqrt(S[N] / %pi), EQ[S[N]];\n\nPR[IN]: [T[ON]=T[OFF]/0.75, T[D]=T[OFF]*0.1, T[OFF]=1.11e-5]$\nPR[OUT]: [I[MAX]=700e-3]$\nEQ[I[IN]], PR[IN], PR[OUT];\nEQ[S[N]], PR[IN], numer;\nEQ[D[N]], PR[IN], numer;\nPR[I]: I=(I[IN]*T[ON]+I[MAX]*T[OFF])/(T[ON]+T[OFF]), EQ[I[IN]], PR[IN], PR[OUT];\nPR[J]: J=3.5e6;\n\nEQ[S], PR[J], PR[I], numer;\nEQ[D], PR[J], PR[I], numer;
$Comp
L C C2
U 1 1 5B73E1C1
P 1500 2350
F 0 "C2" H 1525 2450 50  0000 L CNN
F 1 "100n 400V" V 1650 2200 50  0000 L CNN
F 2 "Local:C_Rect_L10_W5_P7.5" H 1538 2200 30  0001 C CNN
F 3 "" H 1500 2350 60  0000 C CNN
	1    1500 2350
	1    0    0    -1  
$EndComp
Wire Wire Line
	1100 2200 1200 2200
Wire Wire Line
	1200 2200 1200 2300
Wire Wire Line
	1200 2800 1200 2700
Wire Notes Line
	4300 4400 4450 4400
Wire Wire Line
	1100 5500 1100 5600
Wire Wire Line
	1100 5400 1000 5400
Wire Wire Line
	1500 5400 1400 5400
Wire Wire Line
	4600 6700 4600 6800
Wire Wire Line
	2900 5200 2900 5100
Wire Wire Line
	2900 5600 2900 5500
Wire Wire Line
	4300 6700 4300 6800
Wire Wire Line
	4000 6700 4000 6800
Wire Wire Line
	3700 6700 3700 6800
Connection ~ 2700 5600
Wire Wire Line
	2100 5600 2900 5600
Wire Wire Line
	3300 4000 3300 4100
Wire Wire Line
	2700 6000 2700 6100
Wire Wire Line
	1100 5500 1000 5500
Wire Wire Line
	1100 5600 1500 5600
Wire Wire Line
	2200 5400 2200 5300
Wire Wire Line
	2100 5400 2200 5400
Wire Wire Line
	2700 4600 2700 5700
Wire Wire Line
	2800 4600 2700 4600
Wire Wire Line
	2500 5200 2500 5300
Connection ~ 2500 4800
Wire Wire Line
	2800 4800 2500 4800
Wire Wire Line
	2500 4700 2500 4900
Wire Wire Line
	2500 4300 2500 4400
Wire Wire Line
	5200 3800 5300 3800
Wire Wire Line
	5200 3600 5200 3800
Wire Wire Line
	5200 3900 5300 3900
Wire Wire Line
	5200 4100 5200 3900
Connection ~ 5000 4100
Connection ~ 5000 3600
Connection ~ 4200 3600
Wire Wire Line
	4200 3600 5200 3600
Wire Wire Line
	5000 3700 5000 3600
Wire Wire Line
	4900 4100 5200 4100
Wire Wire Line
	5000 4000 5000 4200
Connection ~ 4200 4100
Wire Wire Line
	4200 4100 4300 4100
Wire Wire Line
	4200 3500 4200 3700
Wire Wire Line
	4200 4000 4200 4200
Connection ~ 4200 4700
Wire Wire Line
	4000 4700 4200 4700
Wire Wire Line
	4000 4600 4000 4700
Wire Wire Line
	3800 4600 4000 4600
Wire Wire Line
	4200 4600 4200 4900
Wire Wire Line
	4200 5200 4200 5300
Wire Wire Line
	3800 4400 3900 4400
Wire Wire Line
	2700 4400 2800 4400
Wire Wire Line
	2700 4300 2700 4400
Wire Wire Line
	3300 5100 3300 5300
Wire Wire Line
	3900 5200 3900 5300
Wire Wire Line
	3900 4800 3900 4900
Wire Wire Line
	3900 4800 3800 4800
Wire Wire Line
	3300 3500 3300 3600
Wire Wire Line
	2200 4700 2200 4800
Wire Wire Line
	2200 4300 2200 4400
Connection ~ 3100 2700
Wire Wire Line
	3400 2700 3400 2600
Wire Wire Line
	3100 2700 3100 2800
Wire Wire Line
	2800 2700 3400 2700
Wire Wire Line
	2800 2600 2800 2700
Wire Wire Line
	2800 2300 2800 2200
Connection ~ 3100 2200
Wire Wire Line
	3100 2200 3100 2100
Wire Wire Line
	3400 2200 3400 2300
Wire Wire Line
	2800 2200 3400 2200
Wire Wire Line
	1200 2800 2100 2800
Wire Wire Line
	1500 2000 2100 2000
Wire Wire Line
	1500 2000 1500 2200
Text GLabel 2500 2300 1    60   Input ~ 0
VHH
$Comp
L D_Bridge_+-AA D1
U 1 1 5B7400F0
P 2100 2400
F 0 "D1" H 2150 2675 50  0000 L CNN
F 1 "DB101S" H 2150 2600 50  0000 L CNN
F 2 "Local:DB-1S" H 2100 2400 50  0001 C CNN
F 3 "" H 2100 2400 50  0000 C CNN
	1    2100 2400
	1    0    0    -1  
$EndComp
Wire Wire Line
	1800 2400 1700 2400
Wire Wire Line
	1700 2400 1700 2500
Wire Wire Line
	2400 2400 2500 2400
Wire Wire Line
	2500 2400 2500 2300
Wire Wire Line
	2100 2000 2100 2100
Wire Wire Line
	2100 2800 2100 2700
Wire Wire Line
	1500 2500 1500 2800
Connection ~ 1500 2800
Wire Wire Line
	1400 2100 1500 2100
Connection ~ 1500 2100
Wire Wire Line
	1200 2100 1100 2100
Text GLabel 5600 6500 0    60   Input ~ 0
VGL
$Comp
L PWR_FLAG #FLG018
U 1 1 5B73E958
P 5700 6500
F 0 "#FLG018" H 5700 6595 50  0001 C CNN
F 1 "PWR_FLAG" H 5700 6680 50  0000 C CNN
F 2 "" H 5700 6500 50  0000 C CNN
F 3 "" H 5700 6500 50  0000 C CNN
	1    5700 6500
	0    1    1    0   
$EndComp
Wire Wire Line
	5700 6500 5600 6500
Text Notes 7400 6200 0    60   ~ 0
/* Current */\n\nEQ[I[LED]]: I[LED] = U[LD] * 0.185 / R[CS]$\nEQ[U[LD]]: U[LD] = U[REF] * R[LO] / (R[HI] + R[LO])$\n\nEQ[R[LO]]: solve(EQ[U[LD]], R[LO])[1], solve(EQ[I[LED]], U[LD])$\nEQ[I[LED[REAL]]]: solve(EQ[R[LO]], I[LED])[1];\n\nPR[DRV]: [R[CS] = 400e-3, U[REF] = 7.5]$\n\nEQ[R[LO]], PR[DRV], R[HI] = 33e3, I[LED] = 600e-3;\nEQ[R[LO]], PR[DRV], R[HI] = 33e3, I[LED] = 500e-3;\n\nEQ[I[LED[REAL]]], PR[DRV], R[HI] = 33e3, R[LO] = 5.6e3;\nEQ[I[LED[REAL]]], PR[DRV], R[HI] = 33e3, R[LO] = 6.8e3;
Text Notes 6350 2550 0    60   ~ 0
/* Simple */\n\nEQ[T[OFF]]: T[OFF] = (R[T] / 25e3 + 0.3) / 1e6$\nEQ[T[ON(max)]]: solve(T[ON(max)] / T[OFF] = D[MAX] / (1 - D[MAX]), T[ON(max)])[1]$\nEQ[F[min]]: F[min] = 1 / (T[OFF] + T[ON(max)]), EQ[T[ON(max)]], EQ[T[OFF]]$\nEQ[F[max]]: F[max] = 1 / (T[OFF] + T[ON(min)]), EQ[T[OFF]]$\nEQ[L[O]]: L[O] = U[O(max)] * T[OFF] / (0.4 * I[O]), EQ[T[OFF]]$\n\nPR[DRV]: [U[O(max)] = 320, I[O] = 400e-3, R[T] = 330e3, D[MAX] = 75e-2, T[ON(min)] = 1e-6]$\n\nEQ[T[OFF]], PR[DRV];\n[EQ[F[min]], EQ[F[max]]], PR[DRV];\nEQ[L[O]], PR[DRV];
$EndSCHEMATC
