(module DB4S (layer F.Cu) (tedit 57DBA58D)
  (fp_text reference REF** (at 1.27 0 270) (layer F.SilkS)
    (effects (font (size 1 1) (thickness 0.15)))
  )
  (fp_text value DB4S (at -1.27 0 90) (layer F.Fab)
    (effects (font (size 1 1) (thickness 0.15)))
  )
  (fp_line (start 4.4 -3.15) (end -4.4 -3.15) (layer F.SilkS) (width 0.15))
  (fp_line (start 4.4 3.15) (end -4.4 3.15) (layer F.SilkS) (width 0.15))
  (fp_line (start -4.4 -3.15) (end -4.4 3.15) (layer F.SilkS) (width 0.15))
  (fp_line (start 4.4 -3.15) (end 4.4 3.15) (layer F.SilkS) (width 0.15))
  (pad 1 smd rect (at -2.54 4.5 270) (size 1.6 1.52) (layers F.Cu F.Paste F.Mask))
  (pad 4 smd rect (at -2.54 -4.5 270) (size 1.6 1.52) (layers F.Cu F.Paste F.Mask))
  (pad 3 smd rect (at 2.54 -4.5 270) (size 1.6 1.52) (layers F.Cu F.Paste F.Mask))
  (pad 2 smd rect (at 2.54 4.5 270) (size 1.6 1.52) (layers F.Cu F.Paste F.Mask))
)
