(module SODIP-4_W7.62mm (layer F.Cu) (tedit 58898AF0)
  (descr "4-lead dip package, row spacing 7.62 mm (300 mils)")
  (tags "dil dip 2.54 300")
  (fp_text reference REF** (at 4.699 -2.159) (layer F.SilkS)
    (effects (font (size 1 1) (thickness 0.15)))
  )
  (fp_text value SODIP-4_W7.62mm (at 4.572 4.699) (layer F.Fab)
    (effects (font (size 1 1) (thickness 0.15)))
  )
  (fp_line (start 8.128 1.016) (end 8.128 1.524) (layer F.SilkS) (width 0.15))
  (fp_line (start 0.762 1.016) (end 0.762 1.524) (layer F.SilkS) (width 0.15))
  (fp_line (start -0.415 -1.434) (end -0.415 3.984) (layer F.CrtYd) (width 0.05))
  (fp_line (start 9.412 -1.434) (end 9.412 3.984) (layer F.CrtYd) (width 0.05))
  (fp_line (start -0.415 -1.434) (end 9.412 -1.434) (layer F.CrtYd) (width 0.05))
  (fp_line (start -0.415 3.984) (end 9.412 3.984) (layer F.CrtYd) (width 0.05))
  (fp_line (start 0.77 -1.279) (end 0.77 -1.025) (layer F.SilkS) (width 0.15))
  (fp_line (start 8.12 -1.279) (end 8.12 -1.025) (layer F.SilkS) (width 0.15))
  (fp_line (start 8.12 3.819) (end 8.12 3.565) (layer F.SilkS) (width 0.15))
  (fp_line (start 0.77 3.819) (end 0.77 3.565) (layer F.SilkS) (width 0.15))
  (fp_line (start 0.77 -1.279) (end 8.12 -1.279) (layer F.SilkS) (width 0.15))
  (fp_line (start 0.77 3.819) (end 8.12 3.819) (layer F.SilkS) (width 0.15))
  (fp_line (start 0.77 -1.025) (end -0.165 -1.025) (layer F.SilkS) (width 0.15))
  (pad 1 smd rect (at 0 0) (size 2 1.7) (layers F.Cu F.Paste F.Mask))
  (pad 2 smd rect (at 0 2.54) (size 2 1.7) (layers F.Cu F.Paste F.Mask))
  (pad 3 smd rect (at 9.017 2.54) (size 2 1.7) (layers F.Cu F.Paste F.Mask))
  (pad 4 smd rect (at 9.017 0) (size 2 1.7) (layers F.Cu F.Paste F.Mask))
  (model Housings_DIP.3dshapes/DIP-4_W7.62mm.wrl
    (at (xyz 0 0 0))
    (scale (xyz 1 1 1))
    (rotate (xyz 0 0 0))
  )
)
